<svg id="lofo-mobile-black" xmlns="http://www.w3.org/2000/svg" width="69.6" height="49.2" viewBox="0 0 69.6 49.2">
  <path id="Fill_1" data-name="Fill 1" d="M4.337,6H1.662a.322.322,0,0,1-.287-.182L.038,3.159a.356.356,0,0,1,0-.319L1.375.182A.322.322,0,0,1,1.662,0h.071L.44,2.571,1.733,5.143H4.265L5.558,2.571,4.265,0h.072a.322.322,0,0,1,.287.182L5.963,2.84a.356.356,0,0,1,0,.319L4.624,5.819A.322.322,0,0,1,4.337,6Z" transform="translate(32.4 13.2)"/>
  <path id="Fill_3" data-name="Fill 3" d="M3,22.8a.319.319,0,0,1-.251-.125L1.459,20.989a.336.336,0,0,1-.068-.181L0,.349A.325.325,0,0,1,.3,0,.327.327,0,0,1,.638.3L2.021,20.662,3,21.942l.978-1.28L5.362.3A.32.32,0,1,1,6,.349L4.608,20.808a.33.33,0,0,1-.068.181l-1.29,1.686A.319.319,0,0,1,3,22.8" transform="translate(32.4 15.6)"/>
  <path id="Fill_5" data-name="Fill 5" d="M3.243,2.4a.359.359,0,0,1-.275-.128L1.8.891.632,2.272a.363.363,0,0,1-.5.047.344.344,0,0,1-.048-.492L1.525.119a.376.376,0,0,1,.55,0L3.518,1.827a.344.344,0,0,1-.048.492.358.358,0,0,1-.227.081" transform="translate(33.6 34.8)"/>
  <path id="Fill_7" data-name="Fill 7" d="M.618,3.6a.368.368,0,0,1-.356-.311L.006,1.871a.391.391,0,0,1,.02-.212L.444.56A.368.368,0,0,1,.7.332L1.951.011A.36.36,0,0,1,2.39.293a.382.382,0,0,1-.267.46l-1.073.275-.31.812L.975,3.147a.381.381,0,0,1-.289.446A.329.329,0,0,1,.618,3.6" transform="translate(31.2 12)"/>
  <path id="Fill_9" data-name="Fill 9" d="M1.639,3.6a.3.3,0,0,1-.112-.022.407.407,0,0,1-.209-.5L1.7,1.845l-.278-.792L.269.77A.393.393,0,0,1,.008.307a.344.344,0,0,1,.4-.3L1.739.336a.357.357,0,0,1,.244.235l.393,1.12a.445.445,0,0,1,.005.273L1.96,3.339a.347.347,0,0,1-.321.261" transform="translate(36 12)"/>
  <path id="Fill_11" data-name="Fill 11" d="M3.3,8.4H3.292l-.516-.015a.3.3,0,0,1-.266-.205L.026,1.679A.384.384,0,0,1,.093,1.29L1.175.1A.28.28,0,0,1,1.382,0,.257.257,0,0,1,1.46.012a.326.326,0,0,1,.21.238L3.588,7.961a.387.387,0,0,1-.051.306A.29.29,0,0,1,3.3,8.4ZM1.231,1.328.657,1.96,2.75,7.434Z" transform="translate(31.2 4.8)"/>
  <path id="Fill_13" data-name="Fill 13" d="M.307,8.4H.3a.289.289,0,0,1-.237-.133.386.386,0,0,1-.05-.306L1.931.249A.326.326,0,0,1,2.139.012.265.265,0,0,1,2.218,0a.278.278,0,0,1,.207.1L3.507,1.29a.386.386,0,0,1,.068.389l-2.486,6.5a.3.3,0,0,1-.266.205ZM2.369,1.327.849,7.436,2.942,1.96l-.573-.633h0Z" transform="translate(34.8 4.8)"/>
  <path id="Fill_15" data-name="Fill 15" d="M33.264,32.4a.341.341,0,0,1-.137-.03L17.85,25.462l-9.793.852a.337.337,0,0,1-.355-.258L4.9,14.831.087,9.435a.346.346,0,0,1-.075-.318L2.34.252A.336.336,0,0,1,2.726.006L16.063,2.518a.358.358,0,0,1,.146.068L32.44,15.469a.345.345,0,0,1,.058.479.332.332,0,0,1-.472.058L15.86,3.175,2.91.733.708,9.115l4.746,5.32a.347.347,0,0,1,.077.146L8.284,25.609l9.594-.833a.309.309,0,0,1,.166.027L33.4,31.747a.344.344,0,0,1,.17.451.338.338,0,0,1-.307.2"/>
  <path id="Fill_17" data-name="Fill 17" d="M27.265,2.4h-.032L7.323.635.373,1.4A.333.333,0,0,1,0,1.123.32.32,0,0,1,.3.773L7.28,0a.411.411,0,0,1,.07,0L27.3,1.768a.322.322,0,0,1,.3.345.328.328,0,0,1-.333.287" transform="translate(4.8 13.2)"/>
  <path id="Fill_19" data-name="Fill 19" d="M.323,9.6a.322.322,0,0,1-.271-.149A.327.327,0,0,1,.148,9L13.9.052a.322.322,0,0,1,.447.1.327.327,0,0,1-.1.45L.5,9.548A.32.32,0,0,1,.323,9.6" transform="translate(18 15.6)"/>
  <path id="Fill_21" data-name="Fill 21" d="M.337,32.4a.337.337,0,0,1-.307-.2.344.344,0,0,1,.17-.451L15.556,24.8a.336.336,0,0,1,.166-.027l9.6.833,2.752-11.027a.347.347,0,0,1,.077-.146l4.746-5.32L30.69.733,17.741,3.175,1.575,16.006a.332.332,0,0,1-.472-.058.345.345,0,0,1,.058-.479L17.391,2.586a.35.35,0,0,1,.146-.068L30.873.006a.337.337,0,0,1,.387.246l2.329,8.866a.346.346,0,0,1-.075.318l-4.813,5.4L25.9,26.057a.336.336,0,0,1-.355.258l-9.793-.852L.474,32.37a.341.341,0,0,1-.137.03" transform="translate(36)"/>
  <path id="Fill_23" data-name="Fill 23" d="M.335,2.4A.328.328,0,0,1,0,2.113a.322.322,0,0,1,.3-.345L20.25,0a.411.411,0,0,1,.07,0L27.3.773a.321.321,0,0,1,.294.351.337.337,0,0,1-.372.278L20.277.635.367,2.4H.335" transform="translate(37.2 13.2)"/>
  <path id="Fill_25" data-name="Fill 25" d="M14.077,9.6a.318.318,0,0,1-.175-.052L.148.6a.327.327,0,0,1-.1-.45A.322.322,0,0,1,.5.052L14.252,9a.327.327,0,0,1,.1.45.322.322,0,0,1-.271.149" transform="translate(37.2 15.6)"/>
  <path id="Fill_27" data-name="Fill 27" d="M17.073,25.2a.336.336,0,0,1-.091-.012L5.522,22.033A.339.339,0,0,1,5.3,21.85L.032,10.676a.336.336,0,0,1,.03-.338L7.275.144A.346.346,0,0,1,7.754.061a.339.339,0,0,1,.084.474L.737,10.567,5.858,21.421,16.9,24.46l6.456-12.425a.344.344,0,0,1,.462-.146.337.337,0,0,1,.148.457L17.378,25.016a.346.346,0,0,1-.305.184" transform="translate(9.6 24)"/>
  <path id="Fill_29" data-name="Fill 29" d="M17.515.038a.335.335,0,0,1,.446.131A.316.316,0,0,1,17.825.6L.485,9.562A.347.347,0,0,1,.33,9.6a.332.332,0,0,1-.291-.17A.314.314,0,0,1,.175,9" transform="translate(15.6 36)"/>
  <path id="Fill_31" data-name="Fill 31" d="M6.927,25.2a.346.346,0,0,1-.305-.184L.038,12.346a.338.338,0,0,1,.148-.457.344.344,0,0,1,.462.146L7.1,24.46l11.039-3.039,5.12-10.853L16.081.536a.336.336,0,0,1,.082-.473.343.343,0,0,1,.477.08l7.3,10.193a.338.338,0,0,1,.032.34L18.7,21.85a.339.339,0,0,1-.219.183L7.019,25.188a.336.336,0,0,1-.091.012" transform="translate(36 24)"/>
  <path id="Fill_33" data-name="Fill 33" d="M17.67,9.6a.336.336,0,0,1-.155-.038L.175.6A.315.315,0,0,1,.039.169.338.338,0,0,1,.485.037L17.825,9a.314.314,0,0,1,.136.431.331.331,0,0,1-.291.17" transform="translate(36 36)"/>
</svg>
