<svg xmlns="http://www.w3.org/2000/svg" width="157.679" height="157.679" viewBox="0 0 157.679 157.679">
  <g id="ring" transform="translate(157.679 157.89) rotate(-90)">
    <path id="Fill_10" data-name="Fill 10" d="M78.839,0A78.93,78.93,0,0,1,0-78.839a78.984,78.984,0,0,1,26.106-58.609l3.517,3.906a73.718,73.718,0,0,0-24.366,54.7A73.666,73.666,0,0,0,78.839-5.257a73.666,73.666,0,0,0,73.583-73.582,73.665,73.665,0,0,0-73.583-73.583,73.381,73.381,0,0,0-24.863,4.3L52.2-153.064a78.645,78.645,0,0,1,26.641-4.615,78.929,78.929,0,0,1,78.84,78.84A78.929,78.929,0,0,1,78.839,0" transform="translate(0.211)" fill="#df9481"/>
  </g>
</svg>
